NYPD Shooting Incident Data (Historic) [5301 - Data Science As A Field]
…
Now we look at our New York data, to get an overview of what we were able to pull.

NY_Data

## # A tibble: 27,312 x 21
##    INCIDENT_KEY OCCUR_DATE OCCUR_TIME BORO     LOC_OF_OCCUR_DESC PRECINCT
##           <dbl> <chr>      <time>     <chr>    <chr>                <dbl>
##  1    228798151 05/27/2021 21:30      QUEENS   <NA>                   105
##  2    137471050 06/27/2014 17:40      BRONX    <NA>                    40
##  3    147998800 11/21/2015 03:56      QUEENS   <NA>                   108
##  4    146837977 10/09/2015 18:30      BRONX    <NA>                    44
##  5     58921844 02/19/2009 22:58      BRONX    <NA>                    47
##  6    219559682 10/21/2020 21:36      BROOKLYN <NA>                    81
##  7     85295722 06/17/2012 22:47      QUEENS   <NA>                   114
##  8     71662474 03/08/2010 19:41      BROOKLYN <NA>                    81
##  9     83002139 02/05/2012 05:45      QUEENS   <NA>                   105
## 10     86437261 08/26/2012 01:10      QUEENS   <NA>                   101
## # ... with 27,302 more rows, and 15 more variables: JURISDICTION_CODE <dbl>,
## #   LOC_CLASSFCTN_DESC <chr>, LOCATION_DESC <chr>,
## #   STATISTICAL_MURDER_FLAG <lgl>, PERP_AGE_GROUP <chr>, PERP_SEX <chr>,
## #   PERP_RACE <chr>, VIC_AGE_GROUP <chr>, VIC_SEX <chr>, VIC_RACE <chr>,
## #   X_COORD_CD <dbl>, Y_COORD_CD <dbl>, Latitude <dbl>, Longitude <dbl>,
## #   Lon_Lat <chr>
…
Omission and Transformations

Its best that we transform our NY_data by removing latitude data,longitude data, X and Y coordinate data, location description data, because while they would be great for creating heat maps and doing more complex geo-spatial analysis, I want to really utilize what I learned in class and work with more simplified graphs for my visualizations.

I will also be transforming the following columns to their necessary types for better analysis:

occurrence date from a character type to a month-day-year type from a character type

NY_Data <- NY_Data %>%
  select (-c(Latitude, Longitude, X_COORD_CD,Y_COORD_CD, Lon_Lat, LOC_OF_OCCUR_DESC, LOC_CLASSFCTN_DESC)) %>%
  mutate(OCCUR_DATE = mdy(OCCUR_DATE))

NY_Data

## # A tibble: 27,312 x 14
##    INCIDENT_KEY OCCUR_DATE OCCUR_TIME BORO     PRECINCT JURISDICTION_CODE
##           <dbl> <date>     <time>     <chr>       <dbl>             <dbl>
##  1    228798151 2021-05-27 21:30      QUEENS        105                 0
##  2    137471050 2014-06-27 17:40      BRONX          40                 0
##  3    147998800 2015-11-21 03:56      QUEENS        108                 0
##  4    146837977 2015-10-09 18:30      BRONX          44                 0
##  5     58921844 2009-02-19 22:58      BRONX          47                 0
##  6    219559682 2020-10-21 21:36      BROOKLYN       81                 0
##  7     85295722 2012-06-17 22:47      QUEENS        114                 0
##  8     71662474 2010-03-08 19:41      BROOKLYN       81                 0
##  9     83002139 2012-02-05 05:45      QUEENS        105                 0
## 10     86437261 2012-08-26 01:10      QUEENS        101                 0
## # ... with 27,302 more rows, and 8 more variables: LOCATION_DESC <chr>,
## #   STATISTICAL_MURDER_FLAG <lgl>, PERP_AGE_GROUP <chr>, PERP_SEX <chr>,
## #   PERP_RACE <chr>, VIC_AGE_GROUP <chr>, VIC_SEX <chr>, VIC_RACE <chr>
…
hour_cases

## # A tibble: 24 x 2
## # Groups:   Occur_hour [24]
##    Occur_hour     n
##         <dbl> <int>
##  1          0  2186
##  2          1  2081
##  3          2  1812
##  4          3  1633
##  5          4  1441
##  6          5   702
##  7          6   366
##  8          7   233
##  9          8   238
## 10          9   217
## # ... with 14 more rows
…
